<?xml version="1.0" standalone="no"?>
<!DOCTYPE svg PUBLIC "-//W3C//DTD SVG 20010904//EN"
 "http://www.w3.org/TR/2001/REC-SVG-20010904/DTD/svg10.dtd">
<svg version="1.0" xmlns="http://www.w3.org/2000/svg"
 width="512.000000pt" height="512.000000pt" viewBox="0 0 512.000000 512.000000"
 preserveAspectRatio="xMidYMid meet">
<metadata>
Created by potrace 1.14, written by Peter Selinger 2001-2017
</metadata>
<g transform="translate(0.000000,512.000000) scale(0.100000,-0.100000)"
fill="#000000" stroke="none">
<path d="M2375 4914 c-383 -38 -707 -141 -1016 -324 -537 -318 -929 -840
-1084 -1444 -72 -280 -69 -208 -72 -1649 l-4 -1298 1303 4 c1437 3 1352 0
1628 68 837 207 1500 865 1715 1703 54 213 69 340 69 591 0 248 -14 365 -69
580 -57 222 -137 417 -255 616 -362 611 -990 1033 -1690 1134 -109 16 -438 28
-525 19z m430 -1488 c109 -37 175 -79 250 -158 68 -72 115 -156 142 -258 16
-57 18 -113 18 -440 l0 -375 -27 -80 c-48 -142 -114 -233 -220 -306 -118 -81
-241 -114 -418 -112 -277 3 -478 115 -578 323 -68 141 -74 195 -70 592 4 287
7 353 21 402 57 196 196 347 371 406 103 34 145 39 291 36 121 -2 151 -7 220
-30z"/>
<path d="M2435 3310 c-134 -27 -252 -113 -313 -228 -60 -112 -66 -162 -66
-507 -1 -261 2 -320 16 -372 51 -184 165 -304 333 -349 65 -18 246 -18 311 0
168 45 279 160 330 346 26 94 27 650 1 753 -48 190 -183 324 -361 356 -68 12
-191 13 -251 1z"/>
</g>
</svg>
